{
    "name": "KatilimSaglananProgramBilgisi",
    "fields": [
        {
            "fieldName": "programTuru",
            "fieldType": "ProgramTuru",
            "fieldValues": "SEMINER,KURS,TOPLANTI,CALISTAY,KONFERANS,KONGRE,PANEL,OZEL_IHTISAS_KOMISYONU,DIGER",
            "fieldValidateRules": [
                "required"
            ]
        },
        {
            "fieldName": "programGorevi",
            "fieldType": "ProgramGorevi",
            "fieldValues": "KATILIMCI,KURSIYER,KONUSMACI,EGITICI,MODERATOR,PANELIST,SUNUCU,ORGANIZASYON_VE_PLANLAMA,DIGER",
            "fieldValidateRules": [
                "required"
            ]
        },
        {
            "fieldName": "programAdi",
            "fieldType": "String",
            "fieldValidateRules": [
                "required"
            ]
        },
        {
            "fieldName": "programKonusu",
            "fieldType": "String"
        },
        {
            "fieldName": "baslangicYili",
            "fieldType": "Integer"
        },
        {
            "fieldName": "bitisYili",
            "fieldType": "Integer"
        },
        {
            "fieldName": "duzenleyenKurum",
            "fieldType": "String",
            "fieldValidateRules": [
                "required"
            ]
        },
        {
            "fieldName": "ulke",
            "fieldType": "Ulke",
            "fieldValues": "TURKIYE,INGILTERE,ALMANYA,JAPONYA",
            "fieldValidateRules": [
                "required"
            ]
        },
        {
            "fieldName": "sehir",
            "fieldType": "Sehir",
            "fieldValues": "ADANA,ADIYAMAN,AFYON,AGRI,AMASYA,ANKARA,ANTALYA,ARTVIN,AYDIN,BALIKESIR,ISTANBUL,IZMIR",
            "fieldValidateRules": [
                "required"
            ]
        },
        {
            "fieldName": "belgeTuru",
            "fieldType": "BelgeTuru",
            "fieldValues": "CAE,CPE,FCE,IELTS,KPDS,TOEFL,UDS,YDS",
            "fieldValidateRules": [
                "required"
            ]
        },
        {
            "fieldName": "anahtarKelimeler",
            "fieldType": "String"
        }
    ],
    "relationships": [],
    "changelogDate": "20201027121750",
    "entityTableName": "katilim_saglanan_program_bilgisi",
    "dto": "no",
    "pagination": "pagination",
    "service": "serviceImpl",
    "jpaMetamodelFiltering": false,
    "fluentMethods": true,
    "clientRootFolder": "",
    "applications": "*"
}